Book,X,Y
The Lord of the Rings,3.485846912651825,4.97648241934944
The Lord of the Rings,1.4118870664589966,13.082637572002591
The Lord of the Rings,0.0783159478081815,4.422656924847655
The Lord of the Rings,0.0049444684982406,3.87055853005025
The Lord of the Rings,0.0009883692054017,2.464142815089829
The Lord of the Rings,1.926055897940224e-05,0.636370822793572
The Lord of the Rings,7.964547045271094e-06,0.5130365078530041
The Lord of the Rings,1.3768888823489491e-10,0.1462831108081908
The Lord of the Rings,2.8041899631891774e-18,0.097690752263447
The Lord of the Rings,1.9999888091541057e-19,1.7823173898844698e-06
The Lord of the Rings,0.0012175108716184,0.0002608758122073
The Lord of the Rings,1.7198854026994104,1.250914683541555
The Lord of the Rings,3.485846912651825,4.97648241934944
