Book,X,Y
The Hunger Games,2.0099604890001523,0.90694244099205
The Hunger Games,2.723208990680631,3.4981564388107538
The Hunger Games,0.3796436125093209,1.5742954966856622
The Hunger Games,0.0220441708263839,0.5750454742309209
The Hunger Games,1.4047005526211074e-06,0.3740077622090239
The Hunger Games,2.95861523989604e-20,0.0030204198098382
The Hunger Games,1.2830647151305e-07,1.082212373178548e-07
The Hunger Games,4.980235540597977e-07,4.3197941769261226e-08
The Hunger Games,1.6014022585481102e-05,4.811672253580727e-08
The Hunger Games,0.0053927922680926,2.4006125507516925e-06
The Hunger Games,0.117626392781118,0.0002962613432383
The Hunger Games,2.0099604890001523,0.90694244099205
